{
    "api_version": 2,
    "config_dir": "novum.uwv",
    "namespace": "ApiNovumUwv",
    "site": {
        "dev": {
            "protocol": "http",
            "domain": "api.uwv.innovatieapp.nl"
        },
        "test": {
            "protocol": "https",
            "domain": "api.test.uwv.demo.novum.nu"
        },
        "prod": {
            "protocol": "https",
            "domain": "api.uwv.demo.novum.nu"
        }
    },
    "server_admin": "anton@novum.nu"
}